{
  "project_info": {
    "project_number": "542646834353",
    "firebase_url": "https://farmerservice-548cf.firebaseio.com",
    "project_id": "farmerservice-548cf",
    "storage_bucket": "farmerservice-548cf.appspot.com"
  },
  "client": [
    {
      "client_info": {
        "mobilesdk_app_id": "1:542646834353:android:bc0c68ca1cac1094",
        "android_client_info": {
          "package_name": "com.farmerline.farmerservice"
        }
      },
      "oauth_client": [
        {
          "client_id": "542646834353-rcahisn41i9k4p422h0u53hqasjf4cto.apps.googleusercontent.com",
          "client_type": 3
        }
      ],
      "api_key": [
        {
          "current_key": "AIzaSyBZqa4IFoSos2zA28aZrx1VVPse_5-7cek"
        }
      ],
      "services": {
        "analytics_service": {
          "status": 1
        },
        "appinvite_service": {
          "status": 1,
          "other_platform_oauth_client": []
        },
        "ads_service": {
          "status": 2
        }
      }
    }
  ],
  "configuration_version": "1"
}